{
  "users": [
    {
      "name": "Clara",
      "email": "clara@gmail.com",
      "password": "clarapass",
      "id": "80f08600-1b8f-11e8-9629-c7eca82aa7bd",
      "role": "user",
      "avatar": "https://resizing.flixster.com/kr0IphfLGZqni5JOWDS2P1-zod4=/280x250/v1.cjs0OTQ2NztqOzE4NDk1OzEyMDA7MjgwOzI1MA",
      "updatedAt": "2020-07-28T22:18:35.979Z"
    },
    {
      "name": "Wendy",
      "email": "mark@gmail.com",
      "password": "markpass",
      "id": "533b5230-1b8f-11e8-9629-c7eca82aa7bd",
      "role": "user",
      "avatar": "https://resizing.flixster.com/EVAkglctn7E9B0hVKJrueplabuQ=/220x196/v1.cjs0NjYwNjtqOzE4NDk1OzEyMDA7MjIwOzE5Ng"
    },
    {
      "name": "Admin",
      "email": "admin",
      "password": "admin",
      "role": "admin",
      "id": "4b003c20-1b8f-11e8-9629-c7eca82aa7bd",
      "createdAt": "2020-07-22T21:42:53.737Z",
      "avatar": "https://resizing.flixster.com/PCEX63VBu7wVvdt9Eq-FrTI6d_4=/300x300/v1.cjs0MzYxNjtqOzE4NDk1OzEyMDA7MzQ5OzMxMQ"
    }
  ],
  "messages": [
    {
      "id": "80f08600-1b8f-11e8-9629-c7eca82aa7bd",
      "userId": "9e243930-83c9-11e9-8e0c-8f1a686f4ce4",
      "avatar": "https://resizing.flixster.com/kr0IphfLGZqni5JOWDS2P1-zod4=/280x250/v1.cjs0OTQ2NztqOzE4NDk1OzEyMDA7MjgwOzI1MA",
      "user": "Clara",
      "text": "I don’t *** understand. It's the Panama accounts",
      "likers": [],
      "createdAt": "2020-07-16T19:48:12.936Z",
      "updatedAt": ""
    },
    {
      "id": "80e00b40-1b8f-11e8-9629-c7eca82aa7bd",
      "userId": "533b5230-1b8f-11e8-9629-c7eca82aa7bd",
      "avatar": "https://resizing.flixster.com/EVAkglctn7E9B0hVKJrueplabuQ=/220x196/v1.cjs0NjYwNjtqOzE4NDk1OzEyMDA7MjIwOzE5Ng",
      "user": "Wendy",
      "text": "Tells exactly what happened.",
      "likers": [],
      "createdAt": "2020-07-16T19:48:42.481Z",
      "updatedAt": "2020-07-16T19:48:47.481Z"
    },
    {
      "id": "80e03259-1b8f-11e8-9629-c7eca82aa7bd",
      "userId": "533b5230-1b8f-11e8-9629-c7eca82aa7bd",
      "avatar": "https://resizing.flixster.com/EVAkglctn7E9B0hVKJrueplabuQ=/220x196/v1.cjs0NjYwNjtqOzE4NDk1OzEyMDA7MjIwOzE5Ng",
      "user": "Wendy",
      "text": "You were doing your daily bank transfers and…",
      "likers": [],
      "createdAt": "2020-07-16T19:48:56.273Z",
      "updatedAt": ""
    },
    {
      "id": "80e03258-1b8f-11e8-9629-c7eca82aa7bd",
      "userId": "9e243930-83c9-11e9-8e0c-8f1a686f4ce4",
      "avatar": "https://resizing.flixster.com/kr0IphfLGZqni5JOWDS2P1-zod4=/280x250/v1.cjs0OTQ2NztqOzE4NDk1OzEyMDA7MjgwOzI1MA",
      "user": "Clara",
      "text": "Yes, like I’ve been doing every *** day without red *** flag",
      "likers": [],
      "createdAt": "2020-07-16T19:49:14.480Z",
      "updatedAt": ""
    },
    {
      "id": "80e03257-1b8f-11e8-9629-c7eca82aa7bd",
      "userId": "9e243930-83c9-11e9-8e0c-8f1a686f4ce4",
      "avatar": "https://resizing.flixster.com/kr0IphfLGZqni5JOWDS2P1-zod4=/280x250/v1.cjs0OTQ2NztqOzE4NDk1OzEyMDA7MjgwOzI1MA",
      "user": "Clara",
      "text": "There`s never been a *** problem.",
      "likers": [],
      "createdAt": "2020-07-16T19:48:28.769Z",
      "updatedAt": ""
    },
    {
      "id": "80e03256-1b8f-11e8-9629-c7eca82aa7bd",
      "userId": "4b003c20-1b8f-11e8-9629-c7eca82aa7bd",
      "avatar": "https://resizing.flixster.com/PCEX63VBu7wVvdt9Eq-FrTI6d_4=/300x300/v1.cjs0MzYxNjtqOzE4NDk1OzEyMDA7MzQ5OzMxMQ",
      "user": "Admin",
      "text": "Why this account?",
      "likers": [],
      "createdAt": "2020-07-16T19:49:33.195Z",
      "updatedAt": ""
    },
    {
      "id": "80e03255-1b8f-11e8-9629-c7eca82aa7bd",
      "userId": "9e243930-83c9-11e9-8e0c-8f1a686f4ce4",
      "avatar": "https://resizing.flixster.com/kr0IphfLGZqni5JOWDS2P1-zod4=/280x250/v1.cjs0OTQ2NztqOzE4NDk1OzEyMDA7MjgwOzI1MA",
      "user": "Clara",
      "text": "I don`t *** know! I don`t know!",
      "likers": [],
      "createdAt": "2020-07-16T19:49:45.821Z",
      "updatedAt": ""
    },
    {
      "id": "80e03253-1b8f-11e8-9629-c7eca82aa7bd",
      "userId": "4b003c20-1b8f-11e8-9629-c7eca82aa7bd",
      "avatar": "https://resizing.flixster.com/PCEX63VBu7wVvdt9Eq-FrTI6d_4=/300x300/v1.cjs0MzYxNjtqOzE4NDk1OzEyMDA7MzQ5OzMxMQ",
      "user": "Admin",
      "text": "You said you could handle things",
      "likers": [],
      "createdAt": "2020-07-16T19:53:02.483Z",
      "updatedAt": ""
    },
    {
      "id": "80e03252-1b8f-11e8-9629-c7eca82aa7bd",
      "userId": "9e243930-83c9-11e9-8e0c-8f1a686f4ce4",
      "avatar": "https://resizing.flixster.com/kr0IphfLGZqni5JOWDS2P1-zod4=/280x250/v1.cjs0OTQ2NztqOzE4NDk1OzEyMDA7MjgwOzI1MA",
      "user": "Clara",
      "text": "I did what he taught me.",
      "likers": [],
      "createdAt": "2020-07-16T19:53:17.272Z",
      "updatedAt": "2020-07-16T19:53:50.272Z"
    },
    {
      "id": "80e03251-1b8f-11e8-9629-c7eca82aa7bd",
      "userId": "9e243930-83c9-11e9-8e0c-8f1a686f4ce4",
      "avatar": "https://resizing.flixster.com/kr0IphfLGZqni5JOWDS2P1-zod4=/280x250/v1.cjs0OTQ2NztqOzE4NDk1OzEyMDA7MjgwOzI1MA",
      "user": "Clara",
      "text": "it`s not my fucking fault!",
      "likers": [
        "80f08600-1b8f-11e8-9629-c7eca82aa7bd"
      ],
      "createdAt": "2020-07-16T19:53:49.171Z",
      "updatedAt": "2020-07-24T05:06:40.296Z"
    },
    {
      "id": "80e03250-1b8f-11e8-9629-c7eca82aa7bd",
      "userId": "533b5230-1b8f-11e8-9629-c7eca82aa7bd",
      "avatar": "https://resizing.flixster.com/EVAkglctn7E9B0hVKJrueplabuQ=/220x196/v1.cjs0NjYwNjtqOzE4NDk1OzEyMDA7MjIwOzE5Ng",
      "user": "Wendy",
      "text": "Can you fix this? Can you fix it?",
      "likers": [
        "80f08600-1b8f-11e8-9629-c7eca82aa7bd"
      ],
      "createdAt": "2020-07-16T19:56:51.491Z",
      "updatedAt": "2020-07-24T05:02:25.529Z"
    },
    {
      "id": "80e03249-1b8f-11e8-9629-c7eca82aa7bd",
      "userId": "4b003c20-1b8f-11e8-9629-c7eca82aa7bd",
      "avatar": "https://resizing.flixster.com/PCEX63VBu7wVvdt9Eq-FrTI6d_4=/300x300/v1.cjs0MzYxNjtqOzE4NDk1OzEyMDA7MzQ5OzMxMQ",
      "user": "Admin",
      "text": "Her best is gonna get us all killed.",
      "likers": [
        "533b5230-1b8f-11e8-9629-c7eca82aa7bd",
        "80f08600-1b8f-11e8-9629-c7eca82aa7bd"
      ],
      "createdAt": "2020-07-16T19:57:07.965Z",
      "updatedAt": "2020-07-28T22:17:09.027Z"
    },
    {
      "id": "80e03248-1b8f-11e8-9629-c7eca82aa7bd",
      "userId": "9e243930-83c9-11e9-8e0c-8f1a686f4ce4",
      "avatar": "https://resizing.flixster.com/kr0IphfLGZqni5JOWDS2P1-zod4=/280x250/v1.cjs0OTQ2NztqOzE4NDk1OzEyMDA7MjgwOzI1MA",
      "user": "Clara",
      "text": "I don`t know how!",
      "likers": [
        "533b5230-1b8f-11e8-9629-c7eca82aa7bd",
        "80f08600-1b8f-11e8-9629-c7eca82aa7bd"
      ],
      "createdAt": "2020-07-16T19:58:06.686Z",
      "updatedAt": "2020-07-24T05:28:55.814Z"
    },
    {
      "id": "80e03247-1b8f-11e8-9629-c7eca82aa7bd",
      "userId": "9e243930-83c9-11e9-8e0c-8f1a686f4ce4",
      "avatar": "https://resizing.flixster.com/kr0IphfLGZqni5JOWDS2P1-zod4=/280x250/v1.cjs0OTQ2NztqOzE4NDk1OzEyMDA7MjgwOzI1MA",
      "user": "Clara",
      "text": "it means that the accounts frozen that cause the feds might think that there’s a crime being committed.",
      "likers": [],
      "createdAt": "2020-07-16T19:52:04.375Z",
      "updatedAt": ""
    },
    {
      "id": "80e03246-1b8f-11e8-9629-c7eca82aa7bd",
      "userId": "9e243930-83c9-11e9-8e0c-8f1a686f4ce4",
      "avatar": "https://resizing.flixster.com/kr0IphfLGZqni5JOWDS2P1-zod4=/280x250/v1.cjs0OTQ2NztqOzE4NDk1OzEyMDA7MjgwOzI1MA",
      "user": "Clara",
      "text": "Like by me",
      "likers": [],
      "createdAt": "2020-07-16T19:52:15.334Z",
      "updatedAt": ""
    },
    {
      "userId": "4b003c20-1b8f-11e8-9629-c7eca82aa7bd",
      "text": "hello",
      "user": "Admin",
      "avatar": "https://resizing.flixster.com/PCEX63VBu7wVvdt9Eq-FrTI6d_4=/300x300/v1.cjs0MzYxNjtqOzE4NDk1OzEyMDA7MzQ5OzMxMQ",
      "likers": [],
      "id": "65c55506-9462-40df-9a24-135d7488556c",
      "createdAt": "2020-07-29T06:05:45.650Z"
    }
  ]
}